Library\Bee\artifacts\mvdfrm\Unity.2D.Common.Editor.ref.dll_BD59A5CBF9D52B22.mvfrm
Library\Bee\artifacts\mvdfrm\Unity.2D.Common.Runtime.ref.dll_77798F371487C3E9.mvfrm
Library\Bee\artifacts\mvdfrm\Unity.2D.Path.Editor.ref.dll_583975DB52C81A78.mvfrm
Library\Bee\artifacts\mvdfrm\Unity.2D.SpriteShape.Runtime.ref.dll_BCD600250821B9C8.mvfrm
Library\Bee\artifacts\mvdfrm\Unity.InternalAPIEditorBridge.001.ref.dll_C275F416F58A86FE.mvfrm
Library\Bee\artifacts\mvdfrm\UnityEditor.TestRunner.ref.dll_193EC4CE382CBFB3.mvfrm
Library\Bee\artifacts\mvdfrm\UnityEditor.UI.ref.dll_4C98D3F7040CD4F5.mvfrm
Library\Bee\artifacts\mvdfrm\UnityEngine.TestRunner.ref.dll_E55D0F7C63F01D9E.mvfrm
Library\Bee\artifacts\mvdfrm\UnityEngine.UI.ref.dll_08FEAA520A2EFD60.mvfrm
Library\Bee\artifacts\mvdfrm\UnityEditor.Graphs.dll_613B77E7C58935FF.mvfrm
Library\Bee\artifacts\mvdfrm\UnityEditor.CoreModule.dll_4ED4A04EBAE3B8CD.mvfrm
Library\Bee\artifacts\mvdfrm\UnityEditor.DeviceSimulatorModule.dll_0D85031A346AA984.mvfrm
Library\Bee\artifacts\mvdfrm\UnityEditor.DiagnosticsModule.dll_A03D2E67CBDEDAD2.mvfrm
Library\Bee\artifacts\mvdfrm\UnityEditor.dll_0AE829C66719B738.mvfrm
Library\Bee\artifacts\mvdfrm\UnityEditor.GraphViewModule.dll_17224F62B4CBD869.mvfrm
Library\Bee\artifacts\mvdfrm\UnityEditor.PackageManagerUIModule.dll_B8D519E3A24537E9.mvfrm
Library\Bee\artifacts\mvdfrm\UnityEditor.QuickSearchModule.dll_2B4CAF7524B5D72B.mvfrm
Library\Bee\artifacts\mvdfrm\UnityEditor.SceneTemplateModule.dll_602CEC4DE3FF790C.mvfrm
Library\Bee\artifacts\mvdfrm\UnityEditor.TextCoreFontEngineModule.dll_6350D52D5E1FDFAB.mvfrm
Library\Bee\artifacts\mvdfrm\UnityEditor.TextCoreTextEngineModule.dll_AB390B9EEDA398C9.mvfrm
Library\Bee\artifacts\mvdfrm\UnityEditor.UIBuilderModule.dll_6BAAFC7F2784519D.mvfrm
Library\Bee\artifacts\mvdfrm\UnityEditor.UIElementsModule.dll_F2BC75F0B71B06E9.mvfrm
Library\Bee\artifacts\mvdfrm\UnityEditor.UIElementsSamplesModule.dll_96E9D9E57D18DC14.mvfrm
Library\Bee\artifacts\mvdfrm\UnityEditor.UIServiceModule.dll_A49D0DE210BBA1B7.mvfrm
Library\Bee\artifacts\mvdfrm\UnityEditor.UnityConnectModule.dll_CC6DFB755AFFCE03.mvfrm
Library\Bee\artifacts\mvdfrm\UnityEngine.AccessibilityModule.dll_92D257E4E475A0A9.mvfrm
Library\Bee\artifacts\mvdfrm\UnityEngine.AIModule.dll_2C988ACBEB7CEF81.mvfrm
Library\Bee\artifacts\mvdfrm\UnityEngine.AndroidJNIModule.dll_71055EC4003A75BF.mvfrm
Library\Bee\artifacts\mvdfrm\UnityEngine.AnimationModule.dll_E5A7CB8B8F28AD0F.mvfrm
Library\Bee\artifacts\mvdfrm\UnityEngine.ARModule.dll_E60B4FCF489A4E4A.mvfrm
Library\Bee\artifacts\mvdfrm\UnityEngine.AssetBundleModule.dll_6F35E266871C8C1D.mvfrm
Library\Bee\artifacts\mvdfrm\UnityEngine.AudioModule.dll_5B7677FA3DD5B241.mvfrm
Library\Bee\artifacts\mvdfrm\UnityEngine.ClothModule.dll_C25ED4F517F29125.mvfrm
Library\Bee\artifacts\mvdfrm\UnityEngine.ClusterInputModule.dll_4C0A708B0C87A0C9.mvfrm
Library\Bee\artifacts\mvdfrm\UnityEngine.ClusterRendererModule.dll_1331C58BA425B708.mvfrm
Library\Bee\artifacts\mvdfrm\UnityEngine.CoreModule.dll_71F573A162E923F8.mvfrm
Library\Bee\artifacts\mvdfrm\UnityEngine.CrashReportingModule.dll_F8721D553E15E290.mvfrm
Library\Bee\artifacts\mvdfrm\UnityEngine.DirectorModule.dll_FA2DE92343D8B015.mvfrm
Library\Bee\artifacts\mvdfrm\UnityEngine.dll_3D8C709EC58D441D.mvfrm
Library\Bee\artifacts\mvdfrm\UnityEngine.DSPGraphModule.dll_FF7F4A8CB6398136.mvfrm
Library\Bee\artifacts\mvdfrm\UnityEngine.GameCenterModule.dll_9B52A8DEC67B66B0.mvfrm
Library\Bee\artifacts\mvdfrm\UnityEngine.GIModule.dll_C4D4D3D9872BD79B.mvfrm
Library\Bee\artifacts\mvdfrm\UnityEngine.GridModule.dll_4F668F8F7B3DB9EF.mvfrm
Library\Bee\artifacts\mvdfrm\UnityEngine.HotReloadModule.dll_66F089916A5BC891.mvfrm
Library\Bee\artifacts\mvdfrm\UnityEngine.ImageConversionModule.dll_7F23C33C264A6EFC.mvfrm
Library\Bee\artifacts\mvdfrm\UnityEngine.IMGUIModule.dll_93D6176104074622.mvfrm
Library\Bee\artifacts\mvdfrm\UnityEngine.InputLegacyModule.dll_007AFD851F0E420E.mvfrm
Library\Bee\artifacts\mvdfrm\UnityEngine.InputModule.dll_C1EC3FAAB40DD6E5.mvfrm
Library\Bee\artifacts\mvdfrm\UnityEngine.JSONSerializeModule.dll_F2E9E120E3B10133.mvfrm
Library\Bee\artifacts\mvdfrm\UnityEngine.LocalizationModule.dll_8A573ADDA40393C2.mvfrm
Library\Bee\artifacts\mvdfrm\UnityEngine.NVIDIAModule.dll_77852D7E7E790764.mvfrm
Library\Bee\artifacts\mvdfrm\UnityEngine.ParticleSystemModule.dll_4B8466A1AC276E1E.mvfrm
Library\Bee\artifacts\mvdfrm\UnityEngine.PerformanceReportingModule.dll_504844C79072B0B7.mvfrm
Library\Bee\artifacts\mvdfrm\UnityEngine.Physics2DModule.dll_324DBB7C3025A4A4.mvfrm
Library\Bee\artifacts\mvdfrm\UnityEngine.PhysicsModule.dll_CA26AC67597F9F32.mvfrm
Library\Bee\artifacts\mvdfrm\UnityEngine.ProfilerModule.dll_2C742259DD323722.mvfrm
Library\Bee\artifacts\mvdfrm\UnityEngine.RuntimeInitializeOnLoadManagerInitializerModule.dll_C97280E043AA5D6D.mvfrm
Library\Bee\artifacts\mvdfrm\UnityEngine.ScreenCaptureModule.dll_0CD18EA5F81D2D95.mvfrm
Library\Bee\artifacts\mvdfrm\UnityEngine.SharedInternalsModule.dll_033502119D786A4C.mvfrm
Library\Bee\artifacts\mvdfrm\UnityEngine.SpriteMaskModule.dll_847F1B6EE7EAFC2A.mvfrm
Library\Bee\artifacts\mvdfrm\UnityEngine.SpriteShapeModule.dll_88970FC13CBEC427.mvfrm
Library\Bee\artifacts\mvdfrm\UnityEngine.StreamingModule.dll_9A3CB8DBDEB0644D.mvfrm
Library\Bee\artifacts\mvdfrm\UnityEngine.SubstanceModule.dll_76E7CD252A03625B.mvfrm
Library\Bee\artifacts\mvdfrm\UnityEngine.SubsystemsModule.dll_EF2C81D0B632E43D.mvfrm
Library\Bee\artifacts\mvdfrm\UnityEngine.TerrainModule.dll_E46D27D62F3DE820.mvfrm
Library\Bee\artifacts\mvdfrm\UnityEngine.TerrainPhysicsModule.dll_4BFF0F74C56A68AB.mvfrm
Library\Bee\artifacts\mvdfrm\UnityEngine.TextCoreFontEngineModule.dll_E1B05080711D9E76.mvfrm
Library\Bee\artifacts\mvdfrm\UnityEngine.TextCoreTextEngineModule.dll_299886F200A15794.mvfrm
Library\Bee\artifacts\mvdfrm\UnityEngine.TextRenderingModule.dll_361100B0AF54AD8A.mvfrm
Library\Bee\artifacts\mvdfrm\UnityEngine.TilemapModule.dll_83698F5746FAC929.mvfrm
Library\Bee\artifacts\mvdfrm\UnityEngine.TLSModule.dll_C00825B80C7BD386.mvfrm
Library\Bee\artifacts\mvdfrm\UnityEngine.UIElementsModule.dll_F36AE338B95F2034.mvfrm
Library\Bee\artifacts\mvdfrm\UnityEngine.UIElementsNativeModule.dll_034ECE7913BDA80B.mvfrm
Library\Bee\artifacts\mvdfrm\UnityEngine.UIModule.dll_280C28F947C3F52D.mvfrm
Library\Bee\artifacts\mvdfrm\UnityEngine.UmbraModule.dll_D64B2412CAFC5DB4.mvfrm
Library\Bee\artifacts\mvdfrm\UnityEngine.UNETModule.dll_049BBB8AAFF81971.mvfrm
Library\Bee\artifacts\mvdfrm\UnityEngine.UnityAnalyticsCommonModule.dll_EB87020BAA5B4F15.mvfrm
Library\Bee\artifacts\mvdfrm\UnityEngine.UnityAnalyticsModule.dll_6B23D76B584EC01A.mvfrm
Library\Bee\artifacts\mvdfrm\UnityEngine.UnityConnectModule.dll_B9CD7F845587CEAE.mvfrm
Library\Bee\artifacts\mvdfrm\UnityEngine.UnityCurlModule.dll_18C46CBCFF3C9EFC.mvfrm
Library\Bee\artifacts\mvdfrm\UnityEngine.UnityTestProtocolModule.dll_52AC8FD7D714316A.mvfrm
Library\Bee\artifacts\mvdfrm\UnityEngine.UnityWebRequestAssetBundleModule.dll_CF1BE1816CC8666B.mvfrm
Library\Bee\artifacts\mvdfrm\UnityEngine.UnityWebRequestAudioModule.dll_C84498A616DD7B4F.mvfrm
Library\Bee\artifacts\mvdfrm\UnityEngine.UnityWebRequestModule.dll_90C2CAE6313F097B.mvfrm
Library\Bee\artifacts\mvdfrm\UnityEngine.UnityWebRequestTextureModule.dll_5189C6B81F8A2104.mvfrm
Library\Bee\artifacts\mvdfrm\UnityEngine.UnityWebRequestWWWModule.dll_F45ACC4DF0611400.mvfrm
Library\Bee\artifacts\mvdfrm\UnityEngine.VehiclesModule.dll_71F0E2A2BE027FB0.mvfrm
Library\Bee\artifacts\mvdfrm\UnityEngine.VFXModule.dll_40E6BE26E2E93CF3.mvfrm
Library\Bee\artifacts\mvdfrm\UnityEngine.VideoModule.dll_807FFC650067CDE6.mvfrm
Library\Bee\artifacts\mvdfrm\UnityEngine.VirtualTexturingModule.dll_27DB82E7EC6C2896.mvfrm
Library\Bee\artifacts\mvdfrm\UnityEngine.VRModule.dll_7ADE4F7EE97E7AA5.mvfrm
Library\Bee\artifacts\mvdfrm\UnityEngine.WindModule.dll_E8444EC9F41FA261.mvfrm
Library\Bee\artifacts\mvdfrm\UnityEngine.XRModule.dll_AD9D128372B8C803.mvfrm
Library\Bee\artifacts\mvdfrm\Unity.Android.Gradle.dll_61CB394D63EB6935.mvfrm
Library\Bee\artifacts\mvdfrm\Unity.Android.Types.dll_99F0BAE276F1EFD7.mvfrm
Library\Bee\artifacts\mvdfrm\UnityEditor.Android.Extensions.dll_7BFDB9481B366895.mvfrm
Library\Bee\artifacts\mvdfrm\UnityEditor.iOS.Extensions.Common.dll_4F50B2F3A859F2F2.mvfrm
Library\Bee\artifacts\mvdfrm\UnityEditor.iOS.Extensions.dll_FF3C9F5AD4841093.mvfrm
Library\Bee\artifacts\mvdfrm\UnityEditor.iOS.Extensions.Xcode.dll_984D62EC60F4267A.mvfrm
Library\Bee\artifacts\mvdfrm\UnityEditor.WindowsStandalone.Extensions.dll_6B36247F60C62AA3.mvfrm
Library\Bee\artifacts\mvdfrm\Unity.Burst.Cecil.dll_F02D6B7C1AA1987F.mvfrm
Library\Bee\artifacts\mvdfrm\Unity.Burst.Cecil.Mdb.dll_3A8305D98EDD837C.mvfrm
Library\Bee\artifacts\mvdfrm\Unity.Burst.Cecil.Pdb.dll_51D57E490D9284FF.mvfrm
Library\Bee\artifacts\mvdfrm\Unity.Burst.Cecil.Rocks.dll_0B0505C950722AFF.mvfrm
Library\Bee\artifacts\mvdfrm\Unity.Burst.Unsafe.dll_53B11ADBAB937964.mvfrm
Library\Bee\artifacts\mvdfrm\Unity.Plastic.Antlr3.Runtime.dll_F353242C5F6ABE5B.mvfrm
Library\Bee\artifacts\mvdfrm\Unity.Plastic.Newtonsoft.Json.dll_EB23F719740E0FAA.mvfrm
Library\Bee\artifacts\mvdfrm\Unity.VisualScripting.IonicZip.dll_12C924996EB0CEF8.mvfrm
Library\Bee\artifacts\mvdfrm\Unity.VisualScripting.YamlDotNet.dll_268CCE495F94D704.mvfrm
Library\Bee\artifacts\mvdfrm\Unity.VisualScripting.TextureAssets.dll_BDAAF79D206234FC.mvfrm
Library\Bee\artifacts\mvdfrm\Unity.VisualScripting.Antlr3.Runtime.dll_D7F9F52A905DE723.mvfrm